PA 10: Exploring the Star Wars Universe
…
View(sw_people)

We want to extract out name, height, and mass as character vectors (for now, we have to deal with some issues in height and weight later to change them into double type vectors) and keep films as a list for now. Fill in the correct map type functions for each one.

sw_peeps <- sw_people %>%  {
  tibble(
    name = map_chr(., "name"),  #character
    height = map_chr(., "height"), #character
    mass = map_chr(., "mass"), #character
    films = map(., "films") #list
  )}
sw_peeps

# A tibble: 87 × 4
   name               height mass  films    
   <chr>              <chr>  <chr> <list>   
 1 Luke Skywalker     172    77    <chr [5]>
 2 C-3PO              167    75    <chr [6]>
 3 R2-D2              96     32    <chr [7]>
 4 Darth Vader        202    136   <chr [4]>
 5 Leia Organa        150    49    <chr [5]>
 6 Owen Lars          178    120   <chr [3]>
 7 Beru Whitesun lars 165    75    <chr [3]>
 8 R5-D4              97     32    <chr [1]>
 9 Biggs Darklighter  183    84    <chr [1]>
10 Obi-Wan Kenobi     182    77    <chr [6]>
# ℹ 77 more rows
…
  mutate(height = parse_number(height, na = "unknown"),
         mass = parse_number(mass, na = "unknown")) %>%
  #unnest the lists in films
  unnest(cols = c("films")) %>% 
  #join the film data with episodes names to the people data
  left_join(film_names, by = c("films" = "url")) %>% 
  #remove the `films` url from the data frame
  select(-films) %>% 
  #add the variable trilogy
  mutate(trilogy = case_when(episode_id %in% 1:3 ~ trilogies[1],
                           episode_id %in% 4:6 ~ trilogies[2],
                           episode_id %in% 7   ~ trilogies[3]))
sw_peeps2

# A tibble: 173 × 6
   name           height  mass episode_id episode_name            trilogy       
   <chr>           <dbl> <dbl>      <dbl> <chr>                   <fct>         
 1 Luke Skywalker    172    77          3 Revenge of the Sith     Prequels: Epi…
 2 Luke Skywalker    172    77          6 Return of the Jedi      Originals: Ep…
 3 Luke Skywalker    172    77          5 The Empire Strikes Back Originals: Ep…
 4 Luke Skywalker    172    77          4 A New Hope              Originals: Ep…
 5 Luke Skywalker    172    77          7 The Force Awakens       Sequels: Epis…
 6 C-3PO             167    75          2 Attack of the Clones    Prequels: Epi…
 7 C-3PO             167    75          1 The Phantom Menace      Prequels: Epi…
 8 C-3PO             167    75          3 Revenge of the Sith     Prequels: Epi…
 9 C-3PO             167    75          6 Return of the Jedi      Originals: Ep…
10 C-3PO             167    75          5 The Empire Strikes Back Originals: Ep…
# ℹ 163 more rows
…
